rstudio::conf 2020 - SQS
…
The package library can be found in: pins github directory

Setting up boards are easy in the git hub case you can use:

You can pin the data to your github board using the pin command as follows:

pin(iris, description = "The iris data set", board = "github")

You can get the data back using:

pin_get("iris", board = "github")

## # A tibble: 150 x 5
##    Sepal.Length Sepal.Width Petal.Length Petal.Width Species
##           <dbl>       <dbl>        <dbl>       <dbl> <fct>  
##  1          5.1         3.5          1.4         0.2 setosa 
##  2          4.9         3            1.4         0.2 setosa 
##  3          4.7         3.2          1.3         0.2 setosa 
##  4          4.6         3.1          1.5         0.2 setosa 
##  5          5           3.6          1.4         0.2 setosa 
##  6          5.4         3.9          1.7         0.4 setosa 
##  7          4.6         3.4          1.4         0.3 setosa 
##  8          5           3.4          1.5         0.2 setosa 
##  9          4.4         2.9          1.4         0.2 setosa 
## 10          4.9         3.1          1.5         0.1 setosa 
## # … with 140 more rows
…
pivot_longer() and pivot_wider()

require(tidyr)

## Loading required package: tidyr

iris2<-iris %>% pivot_longer(
  -dplyr::starts_with("Spe"),
  names_to = c("Type"),
  names_pattern = "(.*)"
)
iris2

## # A tibble: 600 x 3
##    Species Type         value
##    <fct>   <chr>        <dbl>
##  1 setosa  Sepal.Length   5.1
##  2 setosa  Sepal.Width    3.5
##  3 setosa  Petal.Length   1.4
##  4 setosa  Petal.Width    0.2
##  5 setosa  Sepal.Length   4.9
##  6 setosa  Sepal.Width    3  
##  7 setosa  Petal.Length   1.4
##  8 setosa  Petal.Width    0.2
##  9 setosa  Sepal.Length   4.7
## 10 setosa  Sepal.Width    3.2
## # … with 590 more rows
…
tmp

## # A tibble: 4 x 4
##   Type         setosa     versicolor virginica 
##   <chr>        <list>     <list>     <list>    
## 1 Sepal.Length <dbl [50]> <dbl [50]> <dbl [50]>
## 2 Sepal.Width  <dbl [50]> <dbl [50]> <dbl [50]>
## 3 Petal.Length <dbl [50]> <dbl [50]> <dbl [50]>
## 4 Petal.Width  <dbl [50]> <dbl [50]> <dbl [50]>

tmp %>%  unnest(everything())

## # A tibble: 200 x 4
##    Type         setosa versicolor virginica
##    <chr>         <dbl>      <dbl>     <dbl>
##  1 Sepal.Length    5.1        7         6.3
##  2 Sepal.Length    4.9        6.4       5.8
##  3 Sepal.Length    4.7        6.9       7.1
##  4 Sepal.Length    4.6        5.5       6.3
##  5 Sepal.Length    5          6.5       6.5
##  6 Sepal.Length    5.4        5.7       7.6
##  7 Sepal.Length    4.6        6.3       4.9
##  8 Sepal.Length    5          4.9       7.3
##  9 Sepal.Length    4.4        6.6       6.7
## 10 Sepal.Length    4.9        5.2       7.2
## # … with 190 more rows

unnest_auto(), unnest_longer(), unnest_wider(), and hoist()

tmp %>%  unnest_longer(setosa)

## # A tibble: 200 x 4
##    Type         setosa versicolor virginica 
##    <chr>         <dbl> <list>     <list>    
##  1 Sepal.Length    5.1 <dbl [50]> <dbl [50]>
##  2 Sepal.Length    4.9 <dbl [50]> <dbl [50]>
##  3 Sepal.Length    4.7 <dbl [50]> <dbl [50]>
##  4 Sepal.Length    4.6 <dbl [50]> <dbl [50]>
##  5 Sepal.Length    5   <dbl [50]> <dbl [50]>
##  6 Sepal.Length    5.4 <dbl [50]> <dbl [50]>
##  7 Sepal.Length    4.6 <dbl [50]> <dbl [50]>
##  8 Sepal.Length    5   <dbl [50]> <dbl [50]>
##  9 Sepal.Length    4.4 <dbl [50]> <dbl [50]>
## 10 Sepal.Length    4.9 <dbl [50]> <dbl [50]>
## # … with 190 more rows
…
tmp %>%  unnest_auto(setosa)

## # A tibble: 200 x 4
##    Type         setosa versicolor virginica 
##    <chr>         <dbl> <list>     <list>    
##  1 Sepal.Length    5.1 <dbl [50]> <dbl [50]>
##  2 Sepal.Length    4.9 <dbl [50]> <dbl [50]>
##  3 Sepal.Length    4.7 <dbl [50]> <dbl [50]>
##  4 Sepal.Length    4.6 <dbl [50]> <dbl [50]>
##  5 Sepal.Length    5   <dbl [50]> <dbl [50]>
##  6 Sepal.Length    5.4 <dbl [50]> <dbl [50]>
##  7 Sepal.Length    4.6 <dbl [50]> <dbl [50]>
##  8 Sepal.Length    5   <dbl [50]> <dbl [50]>
##  9 Sepal.Length    4.4 <dbl [50]> <dbl [50]>
## 10 Sepal.Length    4.9 <dbl [50]> <dbl [50]>
## # … with 190 more rows
…
